{
  "$schema": "../../../node_modules/ng-packagr/ng-package.schema.json",
  "dest": "../../../dist/bd-innovations/dynamic-tables",
  "lib": {
    "entryFile": "src/public_api.ts",
    "umdModuleIds": {
      "lodash": "_",
      "@ngx-translate/core": "ngx-translate-core",
      "@bd-innovations/directive-collection": "directive-collection",
      "@bd-innovations/dynamic-form": "dynamic-form",
      "@bd-innovations/pipe-collection": "pipe-collection"
    }
  }
}
